<?xml version="1.0" encoding="UTF-8"?>
<glyph name="wdieresis" format="1">
  <advance width="720"/>
  <unicode hex="1E85"/>
  <outline>
    <component base="w" xOffset="10"/>
    <component base="dieresis" xOffset="90"/>
  </outline>
  <lib>
    <dict>
      <key>com.typemytype.robofont.layerData</key>
      <dict>
        <key>alt</key>
        <dict>
          <key>anchors</key>
          <array>
          </array>
          <key>components</key>
          <array>
          </array>
          <key>contours</key>
          <array>
          </array>
          <key>lib</key>
          <dict>
          </dict>
          <key>name</key>
          <string>wdieresis</string>
          <key>unicodes</key>
          <array>
          </array>
          <key>width</key>
          <integer>720</integer>
        </dict>
        <key>background</key>
        <dict>
          <key>anchors</key>
          <array>
          </array>
          <key>components</key>
          <array>
          </array>
          <key>contours</key>
          <array>
          </array>
          <key>lib</key>
          <dict>
          </dict>
          <key>name</key>
          <string>wdieresis</string>
          <key>unicodes</key>
          <array>
          </array>
          <key>width</key>
          <integer>720</integer>
        </dict>
      </dict>
    </dict>
  </lib>
</glyph>
