<?xml version="1.0" encoding="UTF-8"?>
<glyph name="Dcaron" format="1">
  <advance width="780"/>
  <unicode hex="010E"/>
  <outline>
    <component base="D" xOffset="-10"/>
    <component base="caron.case"/>
  </outline>
  <lib>
    <dict>
      <key>com.typemytype.robofont.layerData</key>
      <dict>
        <key>alt</key>
        <dict>
          <key>anchors</key>
          <array>
          </array>
          <key>components</key>
          <array>
          </array>
          <key>contours</key>
          <array>
          </array>
          <key>lib</key>
          <dict>
          </dict>
          <key>name</key>
          <string>Dcaron</string>
          <key>unicodes</key>
          <array>
          </array>
          <key>width</key>
          <integer>780</integer>
        </dict>
        <key>background</key>
        <dict>
          <key>anchors</key>
          <array>
          </array>
          <key>components</key>
          <array>
          </array>
          <key>contours</key>
          <array>
          </array>
          <key>lib</key>
          <dict>
          </dict>
          <key>name</key>
          <string>Dcaron</string>
          <key>unicodes</key>
          <array>
          </array>
          <key>width</key>
          <integer>780</integer>
        </dict>
      </dict>
    </dict>
  </lib>
</glyph>
