<?xml version="1.0" encoding="UTF-8"?>
<glyph name="iacute" format="1">
  <advance width="330"/>
  <unicode hex="00ED"/>
  <outline>
    <component base="acute" xOffset="-120"/>
    <component base="dotlessi" xOffset="-10"/>
  </outline>
  <lib>
    <dict>
      <key>com.typemytype.robofont.layerData</key>
      <dict>
        <key>alt</key>
        <dict>
          <key>anchors</key>
          <array>
          </array>
          <key>components</key>
          <array>
          </array>
          <key>contours</key>
          <array>
          </array>
          <key>lib</key>
          <dict>
          </dict>
          <key>name</key>
          <string>iacute</string>
          <key>unicodes</key>
          <array>
          </array>
          <key>width</key>
          <integer>330</integer>
        </dict>
        <key>background</key>
        <dict>
          <key>anchors</key>
          <array>
          </array>
          <key>components</key>
          <array>
          </array>
          <key>contours</key>
          <array>
          </array>
          <key>lib</key>
          <dict>
          </dict>
          <key>name</key>
          <string>iacute</string>
          <key>unicodes</key>
          <array>
          </array>
          <key>width</key>
          <integer>330</integer>
        </dict>
      </dict>
    </dict>
  </lib>
</glyph>
